IV. Coupled Oscillator/DKMM/ALL0047.CSV

Format,2.0A,
Memory Length,5000,Memory Length,5000,
Trigger Level,0.00V,Trigger Level,0.00V,
Source,CH1,Source,CH2,
Label,ACK,Label, ,
Probe Ratio,1.000E+00,Probe Ratio,1.000E+00,
Vertical Units,V,Vertical Units,V,
Vertical Scale,5.000E-01,Vertical Scale,2.000E-01,
Vertical Position,7.000E-01,Vertical Position,-4.000E-01,
Horizontal Units,S,Horizontal Units,S,
Horizontal Scale,2.000E-01,Horizontal Scale,2.000E-01,
Horizontal Position,0.000E+00,Horizontal Position,0.000E+00,
Horizontal Mode,Roll Mode,Horizontal Mode,Roll Mode,
Sampling Period,4.000E-04,Sampling Period,4.000E-04,
Firmware,V1.21,Firmware,V1.21,
Time,14-Mar-23 20:41:03,Time,14-Mar-23 20:41:03,
Mode,Detail,Mode,Detail,
Waveform Data,,Waveform Data,,
-1.000000e+00,0.140000,-1.000000e+00,-0.040000,
-9.996000e-01,0.200000,-9.996000e-01,-0.040000,
-9.992000e-01,0.160000,-9.992000e-01,-0.008000,
-9.988000e-01,0.200000,-9.988000e-01,-0.008000,
-9.984000e-01,0.160000,-9.984000e-01,0.016000,
-9.980000e-01,0.200000,-9.980000e-01,0.016000,
-9.976000e-01,0.180000,-9.976000e-01,0.048000,
-9.972000e-01,0.220000,-9.972000e-01,0.048000,
-9.968000e-01,0.180000,-9.968000e-01,0.072000,
-9.964000e-01,0.220000,-9.964000e-01,0.072000,
-9.960000e-01,0.240000,-9.960000e-01,0.088000,
-9.956000e-01,0.200000,-9.956000e-01,0.120000,
-9.952000e-01,0.240000,-9.952000e-01,0.112000,
-9.948000e-01,0.200000,-9.948000e-01,0.144000,
-9.944000e-01,0.260000,-9.944000e-01,0.136000,
-9.940000e-01,0.220000,-9.940000e-01,0.168000,
-9.936000e-01,0.260000,-9.936000e-01,0.168000,
-9.932000e-01,0.260000,-9.932000e-01,0.176000,
-9.928000e-01,0.240000,-9.928000e-01,0.208000,
-9.924000e-01,0.280000,-9.924000e-01,0.200000,
-9.920000e-01,0.240000,-9.920000e-01,0.224000,
-9.916000e-01,0.280000,-9.916000e-01,0.224000,
-9.912000e-01,0.300000,-9.912000e-01,0.232000,
-9.908000e-01,0.260000,-9.908000e-01,0.256000,
-9.904000e-01,0.260000,-9.904000e-01,0.256000,
-9.900000e-01,0.300000,-9.900000e-01,0.280000,
-9.896000e-01,0.300000,-9.896000e-01,0.272000,
-9.892000e-01,0.280000,-9.892000e-01,0.296000,
-9.888000e-01,0.320000,-9.888000e-01,0.288000,
-9.884000e-01,0.280000,-9.884000e-01,0.312000,
-9.880000e-01,0.320000,-9.880000e-01,0.304000,
-9.876000e-01,0.280000,-9.876000e-01,0.320000,
-9.872000e-01,0.320000,-9.872000e-01,0.312000,
-9.868000e-01,0.300000,-9.868000e-01,0.336000,
-9.864000e-01,0.340000,-9.864000e-01,0.344000,
-9.860000e-01,0.300000,-9.860000e-01,0.328000,
-9.856000e-01,0.340000,-9.856000e-01,0.336000,
-9.852000e-01,0.300000,-9.852000e-01,0.352000,
-9.848000e-01,0.340000,-9.848000e-01,0.344000,
-9.844000e-01,0.300000,-9.844000e-01,0.360000,
-9.840000e-01,0.340000,-9.840000e-01,0.352000,
-9.836000e-01,0.340000,-9.836000e-01,0.368000,
-9.832000e-01,0.320000,-9.832000e-01,0.360000,
-9.828000e-01,0.340000,-9.828000e-01,0.360000,
-9.824000e-01,0.320000,-9.824000e-01,0.376000,
-9.820000e-01,0.360000,-9.820000e-01,0.376000,
-9.816000e-01,0.320000,-9.816000e-01,0.368000,
-9.812000e-01,0.360000,-9.812000e-01,0.368000,
-9.808000e-01,0.320000,-9.808000e-01,0.384000,
-9.804000e-01,0.360000,-9.804000e-01,0.384000,
-9.800000e-01,0.320000,-9.800000e-01,0.376000,
-9.796000e-01,0.360000,-9.796000e-01,0.384000,
-9.792000e-01,0.320000,-9.792000e-01,0.376000,
-9.788000e-01,0.360000,-9.788000e-01,0.392000,
-9.784000e-01,0.320000,-9.784000e-01,0.376000,
-9.780000e-01,0.360000,-9.780000e-01,0.392000,
-9.776000e-01,0.360000,-9.776000e-01,0.392000,
-9.772000e-01,0.320000,-9.772000e-01,0.384000,
-9.768000e-01,0.360000,-9.768000e-01,0.392000,
-9.764000e-01,0.320000,-9.764000e-01,0.384000,
-9.760000e-01,0.360000,-9.760000e-01,0.392000,
-9.756000e-01,0.360000,-9.756000e-01,0.392000,
-9.752000e-01,0.320000,-9.752000e-01,0.384000,
-9.748000e-01,0.360000,-9.748000e-01,0.392000,
-9.744000e-01,0.320000,-9.744000e-01,0.384000,
-9.740000e-01,0.360000,-9.740000e-01,0.384000,
-9.736000e-01,0.320000,-9.736000e-01,0.400000,
-9.732000e-01,0.340000,-9.732000e-01,0.400000,
-9.728000e-01,0.320000,-9.728000e-01,0.384000,
-9.724000e-01,0.340000,-9.724000e-01,0.400000,
-9.720000e-01,0.320000,-9.720000e-01,0.384000,
-9.716000e-01,0.340000,-9.716000e-01,0.400000,
-9.712000e-01,0.340000,-9.712000e-01,0.400000,
-9.708000e-01,0.300000,-9.708000e-01,0.384000,
-9.704000e-01,0.340000,-9.704000e-01,0.392000,
-9.700000e-01,0.300000,-9.700000e-01,0.384000,
-9.696000e-01,0.340000,-9.696000e-01,0.392000,
-9.692000e-01,0.300000,-9.692000e-01,0.384000,
-9.688000e-01,0.320000,-9.688000e-01,0.392000,
-9.684000e-01,0.300000,-9.684000e-01,0.384000,
-9.680000e-01,0.320000,-9.680000e-01,0.392000,
-9.676000e-01,0.280000,-9.676000e-01,0.384000,
-9.672000e-01,0.320000,-9.672000e-01,0.392000,
-9.668000e-01,0.280000,-9.668000e-01,0.376000,
-9.664000e-01,0.300000,-9.664000e-01,0.384000,
-9.660000e-01,0.280000,-9.660000e-01,0.376000,
-9.656000e-01,0.300000,-9.656000e-01,0.376000,
-9.652000e-01,0.260000,-9.652000e-01,0.368000,
-9.648000e-01,0.300000,-9.648000e-01,0.376000,
-9.644000e-01,0.260000,-9.644000e-01,0.360000,
-9.640000e-01,0.280000,-9.640000e-01,0.368000,
-9.636000e-01,0.260000,-9.636000e-01,0.352000,
-9.632000e-01,0.280000,-9.632000e-01,0.360000,
-9.628000e-01,0.240000,-9.628000e-01,0.344000,
-9.624000e-01,0.280000,-9.624000e-01,0.352000,
-9.620000e-01,0.240000,-9.620000e-01,0.336000,
-9.616000e-01,0.280000,-9.616000e-01,0.336000,
-9.612000e-01,0.240000,-9.612000e-01,0.320000,
-9.608000e-01,0.260000,-9.608000e-01,0.328000,
-9.604000e-01,0.240000,-9.604000e-01,0.304000,
-9.600000e-01,0.260000,-9.600000e-01,0.312000,
-9.596000e-01,0.220000,-9.596000e-01,0.288000,
-9.592000e-01,0.240000,-9.592000e-01,0.296000,
-9.588000e-01,0.220000,-9.588000e-01,0.272000,
-9.584000e-01,0.240000,-9.584000e-01,0.280000,
-9.580000e-01,0.200000,-9.580000e-01,0.256000,
-9.576000e-01,0.240000,-9.576000e-01,0.256000,
-9.572000e-01,0.200000,-9.572000e-01,0.232000,
-9.568000e-01,0.220000,-9.568000e-01,0.232000,
-9.564000e-01,0.180000,-9.564000e-01,0.208000,
-9.560000e-01,0.200000,-9.560000e-01,0.216000,
-9.556000e-01,0.180000,-9.556000e-01,0.184000,
-9.552000e-01,0.200000,-9.552000e-01,0.184000,
-9.548000e-01,0.160000,-9.548000e-01,0.152000,
-9.544000e-01,0.180000,-9.544000e-01,0.160000,
-9.540000e-01,0.160000,-9.540000e-01,0.128000,
-9.536000e-01,0.160000,-9.536000e-01,0.128000,
-9.532000e-01,0.140000,-9.532000e-01,0.096000,
-9.528000e-01,0.160000,-9.528000e-01,0.104000,
-9.524000e-01,0.120000,-9.524000e-01,0.072000,
-9.520000e-01,0.140000,-9.520000e-01,0.080000,
-9.516000e-01,0.120000,-9.516000e-01,0.048000,
-9.512000e-01,0.140000,-9.512000e-01,0.048000,
-9.508000e-01,0.100000,-9.508000e-01,0.016000,
-9.504000e-01,0.120000,-9.504000e-01,0.024000,
-9.500000e-01,0.100000,-9.500000e-01,-0.008000,
-9.496000e-01,0.120000,-9.496000e-01,-0.008000,
-9.492000e-01,0.080000,-9.492000e-01,-0.040000,
-9.488000e-01,0.100000,-9.488000e-01,-0.032000,
-9.484000e-01,0.060000,-9.484000e-01,-0.064000,
-9.480000e-01,0.080000,-9.480000e-01,-0.056000,
-9.476000e-01,0.060000,-9.476000e-01,-0.088000,
-9.472000e-01,0.080000,-9.472000e-01,-0.080000,
-9.468000e-01,0.040000,-9.468000e-01,-0.112000,
-9.464000e-01,0.060000,-9.464000e-01,-0.104000,
-9.460000e-01,0.040000,-9.460000e-01,-0.136000,
-9.456000e-01,0.060000,-9.456000e-01,-0.128000,
-9.452000e-01,0.020000,-9.452000e-01,-0.152000,
-9.448000e-01,0.040000,-9.448000e-01,-0.152000,
-9.444000e-01,0.000000,-9.444000e-01,-0.176000,
-9.440000e-01,0.020000,-9.440000e-01,-0.168000,
-9.436000e-01,0.000000,-9.436000e-01,-0.192000,
-9.432000e-01,0.020000,-9.432000e-01,-0.192000,
-9.428000e-01,-0.020000,-9.428000e-01,-0.216000,
-9.424000e-01,0.000000,-9.424000e-01,-0.208000,
-9.420000e-01,-0.040000,-9.420000e-01,-0.232000,
-9.416000e-01,-0.020000,-9.416000e-01,-0.224000,
-9.412000e-01,-0.060000,-9.412000e-01,-0.248000,
-9.408000e-01,-0.040000,-9.408000e-01,-0.240000,
-9.404000e-01,-0.060000,-9.404000e-01,-0.256000,
-9.400000e-01,-0.040000,-9.400000e-01,-0.248000,
-9.396000e-01,-0.080000,-9.396000e-01,-0.272000,
-9.392000e-01,-0.060000,-9.392000e-01,-0.264000,
-9.388000e-01,-0.100000,-9.388000e-01,-0.288000,
-9.384000e-01,-0.080000,-9.384000e-01,-0.280000,
-9.380000e-01,-0.080000,-9.380000e-01,-0.280000,
-9.376000e-01,-0.120000,-9.376000e-01,-0.296000,
-9.372000e-01,-0.100000,-9.372000e-01,-0.288000,
-9.368000e-01,-0.140000,-9.368000e-01,-0.304000,
-9.364000e-01,-0.120000,-9.364000e-01,-0.304000,
-9.360000e-01,-0.120000,-9.360000e-01,-0.304000,
-9.356000e-01,-0.160000,-9.356000e-01,-0.320000,
-9.352000e-01,-0.140000,-9.352000e-01,-0.312000,
-9.348000e-01,-0.180000,-9.348000e-01,-0.328000,
-9.344000e-01,-0.160000,-9.344000e-01,-0.320000,
-9.340000e-01,-0.180000,-9.340000e-01,-0.328000,
-9.336000e-01,-0.160000,-9.336000e-01,-0.320000,
-9.332000e-01,-0.200000,-9.332000e-01,-0.336000,
-9.328000e-01,-0.180000,-9.328000e-01,-0.328000,
-9.324000e-01,-0.200000,-9.324000e-01,-0.336000,
-9.320000e-01,-0.180000,-9.320000e-01,-0.336000,
-9.316000e-01,-0.220000,-9.316000e-01,-0.344000,
-9.312000e-01,-0.180000,-9.312000e-01,-0.336000,
-9.308000e-01,-0.220000,-9.308000e-01,-0.344000,
-9.304000e-01,-0.200000,-9.304000e-01,-0.336000,
-9.300000e-01,-0.240000,-9.300000e-01,-0.344000,
-9.296000e-01,-0.200000,-9.296000e-01,-0.336000,
-9.292000e-01,-0.240000,-9.292000e-01,-0.344000,
-9.288000e-01,-0.220000,-9.288000e-01,-0.336000,
-9.284000e-01,-0.240000,-9.284000e-01,-0.352000,
-9.280000e-01,-0.220000,-9.280000e-01,-0.336000,
-9.276000e-01,-0.240000,-9.276000e-01,-0.344000,
-9.272000e-01,-0.220000,-9.272000e-01,-0.336000,
-9.268000e-01,-0.260000,-9.268000e-01,-0.344000,
-9.264000e-01,-0.240000,-9.264000e-01,-0.344000,
-9.260000e-01,-0.260000,-9.260000e-01,-0.328000,
-9.256000e-01,-0.240000,-9.256000e-01,-0.328000,
-9.252000e-01,-0.260000,-9.252000e-01,-0.336000,
-9.248000e-01,-0.240000,-9.248000e-01,-0.320000,
-9.244000e-01,-0.260000,-9.244000e-01,-0.336000,
-9.240000e-01,-0.240000,-9.240000e-01,-0.320000,
-9.236000e-01,-0.240000,-9.236000e-01,-0.320000,
-9.232000e-01,-0.280000,-9.232000e-01,-0.328000,
-9.228000e-01,-0.260000,-9.228000e-01,-0.312000,
-9.224000e-01,-0.280000,-9.224000e-01,-0.320000,
-9.220000e-01,-0.240000,-9.220000e-01,-0.320000,
-9.216000e-01,-0.280000,-9.216000e-01,-0.304000,
-9.212000e-01,-0.260000,-9.212000e-01,-0.312000,
-9.208000e-01,-0.280000,-9.208000e-01,-0.296000,
-9.204000e-01,-0.260000,-9.204000e-01,-0.288000,
-9.200000e-01,-0.300000,-9.200000e-01,-0.304000,
-9.196000e-01,-0.260000,-9.196000e-01,-0.296000,
-9.192000e-01,-0.300000,-9.192000e-01,-0.272000,
-9.188000e-01,-0.280000,-9.188000e-01,-0.280000,
-9.184000e-01,-0.260000,-9.184000e-01,-0.280000,
-9.180000e-01,-0.300000,-9.180000e-01,-0.264000,
-9.176000e-01,-0.280000,-9.176000e-01,-0.264000,
-9.172000e-01,-0.300000,-9.172000e-01,-0.248000,
-9.168000e-01,-0.280000,-9.168000e-01,-0.256000,
-9.164000e-01,-0.280000,-9.164000e-01,-0.248000,
-9.160000e-01,-0.320000,-9.160000e-01,-0.224000,
-9.156000e-01,-0.280000,-9.156000e-01,-0.232000,
-9.152000e-01,-0.320000,-9.152000e-01,-0.208000,
-9.148000e-01,-0.280000,-9.148000e-01,-0.216000,
-9.144000e-01,-0.320000,-9.144000e-01,-0.184000,
-9.140000e-01,-0.280000,-9.140000e-01,-0.192000,
-9.136000e-01,-0.280000,-9.136000e-01,-0.184000,
-9.132000e-01,-0.320000,-9.132000e-01,-0.160000,
-9.128000e-01,-0.280000,-9.128000e-01,-0.168000,
-9.124000e-01,-0.320000,-9.124000e-01,-0.136000,
-9.120000e-01,-0.280000,-9.120000e-01,-0.144000,
-9.116000e-01,-0.320000,-9.116000e-01,-0.128000,
-9.112000e-01,-0.260000,-9.112000e-01,-0.104000,
-9.108000e-01,-0.280000,-9.108000e-01,-0.112000,
-9.104000e-01,-0.300000,-9.104000e-01,-0.080000,
-9.100000e-01,-0.260000,-9.100000e-01,-0.080000,
-9.096000e-01,-0.300000,-9.096000e-01,-0.056000,
-9.092000e-01,-0.260000,-9.092000e-01,-0.056000,
-9.088000e-01,-0.300000,-9.088000e-01,-0.024000,
-9.084000e-01,-0.240000,-9.084000e-01,-0.032000,
-9.080000e-01,-0.280000,-9.080000e-01,0.008000,
-9.076000e-01,-0.240000,-9.076000e-01,-0.008000,
-9.072000e-01,-0.280000,-9.072000e-01,0.032000,
-9.068000e-01,-0.240000,-9.068000e-01,0.024000,
-9.064000e-01,-0.260000,-9.064000e-01,0.056000,
-9.060000e-01,-0.220000,-9.060000e-01,0.056000,
-9.056000e-01,-0.260000,-9.056000e-01,0.088000,
-9.052000e-01,-0.200000,-9.052000e-01,0.080000,
-9.048000e-01,-0.240000,-9.048000e-01,0.120000,
-9.044000e-01,-0.220000,-9.044000e-01,0.112000,
-9.040000e-01,-0.180000,-9.040000e-01,0.144000,
-9.036000e-01,-0.180000,-9.036000e-01,0.136000,
-9.032000e-01,-0.220000,-9.032000e-01,0.168000,
-9.028000e-01,-0.160000,-9.028000e-01,0.168000,
-9.024000e-01,-0.200000,-9.024000e-01,0.192000,
-9.020000e-01,-0.140000,-9.020000e-01,0.184000,
-9.016000e-01,-0.180000,-9.016000e-01,0.216000,
-9.012000e-01,-0.120000,-9.012000e-01,0.208000,
-9.008000e-01,-0.160000,-9.008000e-01,0.240000,
-9.004000e-01,-0.100000,-9.004000e-01,0.232000,
-9.000000e-01,-0.140000,-9.000000e-01,0.256000,
-8.996000e-01,-0.080000,-8.996000e-01,0.248000,
-8.992000e-01,-0.120000,-8.992000e-01,0.256000,
-8.988000e-01,-0.060000,-8.988000e-01,0.280000,
-8.984000e-01,-0.040000,-8.984000e-01,0.272000,
-8.980000e-01,-0.080000,-8.980000e-01,0.296000,
-8.976000e-01,-0.060000,-8.976000e-01,0.288000,
-8.972000e-01,-0.020000,-8.972000e-01,0.312000,
-8.968000e-01,0.000000,-8.968000e-01,0.304000,
-8.964000e-01,-0.040000,-8.964000e-01,0.320000,
-8.960000e-01,0.020000,-8.960000e-01,0.312000,
-8.956000e-01,-0.020000,-8.956000e-01,0.328000,
-8.952000e-01,0.000000,-8.952000e-01,0.336000,
-8.948000e-01,0.040000,-8.948000e-01,0.328000,
-8.944000e-01,0.020000,-8.944000e-01,0.336000,
-8.940000e-01,0.060000,-8.940000e-01,0.352000,
-8.936000e-01,0.040000,-8.936000e-01,0.352000,
-8.932000e-01,0.060000,-8.932000e-01,0.344000,
-8.928000e-01,0.100000,-8.928000e-01,0.360000,
-8.924000e-01,0.080000,-8.924000e-01,0.352000,
-8.920000e-01,0.120000,-8.920000e-01,0.368000,
-8.916000e-01,0.100000,-8.916000e-01,0.368000,
-8.912000e-01,0.100000,-8.912000e-01,0.376000,
-8.908000e-01,0.160000,-8.908000e-01,0.360000,
-8.904000e-01,0.180000,-8.904000e-01,0.376000,
-8.900000e-01,0.140000,-8.900000e-01,0.368000,
-8.896000e-01,0.160000,-8.896000e-01,0.376000,
-8.892000e-01,0.200000,-8.892000e-01,0.368000,
-8.888000e-01,0.220000,-8.888000e-01,0.368000,
-8.884000e-01,0.180000,-8.884000e-01,0.384000,
-8.880000e-01,0.240000,-8.880000e-01,0.384000,
-8.876000e-01,0.200000,-8.876000e-01,0.376000,
-8.872000e-01,0.220000,-8.872000e-01,0.384000,
-8.868000e-01,0.280000,-8.868000e-01,0.376000,
-8.864000e-01,0.240000,-8.864000e-01,0.376000,
-8.860000e-01,0.300000,-8.860000e-01,0.392000,
-8.856000e-01,0.280000,-8.856000e-01,0.392000,
-8.852000e-01,0.320000,-8.852000e-01,0.376000,
-8.848000e-01,0.300000,-8.848000e-01,0.392000,
-8.844000e-01,0.340000,-8.844000e-01,0.384000,
-8.840000e-01,0.320000,-8.840000e-01,0.392000,
-8.836000e-01,0.360000,-8.836000e-01,0.384000,
-8.832000e-01,0.340000,-8.832000e-01,0.392000,
-8.828000e-01,0.400000,-8.828000e-01,0.384000,
-8.824000e-01,0.420000,-8.824000e-01,0.392000,
-8.820000e-01,0.380000,-8.820000e-01,0.384000,
-8.816000e-01,0.380000,-8.816000e-01,0.392000,
-8.812000e-01,0.440000,-8.812000e-01,0.384000,
-8.808000e-01,0.460000,-8.808000e-01,0.392000,
-8.804000e-01,0.420000,-8.804000e-01,0.384000,
-8.800000e-01,0.480000,-8.800000e-01,0.392000,
-8.796000e-01,0.480000,-8.796000e-01,0.392000,
-8.792000e-01,0.440000,-8.792000e-01,0.384000,
-8.788000e-01,0.500000,-8.788000e-01,0.392000,
-8.784000e-01,0.460000,-8.784000e-01,0.376000,
-8.780000e-01,0.520000,-8.780000e-01,0.384000,
-8.776000e-01,0.480000,-8.776000e-01,0.376000,
-8.772000e-01,0.540000,-8.772000e-01,0.384000,
-8.768000e-01,0.500000,-8.768000e-01,0.376000,
-8.764000e-01,0.540000,-8.764000e-01,0.384000,
-8.760000e-01,0.500000,-8.760000e-01,0.368000,
-8.756000e-01,0.560000,-8.756000e-01,0.376000,
-8.752000e-01,0.520000,-8.752000e-01,0.368000,
-8.748000e-01,0.560000,-8.748000e-01,0.368000,
-8.744000e-01,0.520000,-8.744000e-01,0.360000,
-8.740000e-01,0.580000,-8.740000e-01,0.368000,
-8.736000e-01,0.580000,-8.736000e-01,0.360000,
-8.732000e-01,0.540000,-8.732000e-01,0.344000,
-8.728000e-01,0.580000,-8.728000e-01,0.352000,
-8.724000e-01,0.540000,-8.724000e-01,0.336000,
-8.720000e-01,0.580000,-8.720000e-01,0.344000,
-8.716000e-01,0.580000,-8.716000e-01,0.336000,
-8.712000e-01,0.560000,-8.712000e-01,0.320000,
-8.708000e-01,0.580000,-8.708000e-01,0.328000,
-8.704000e-01,0.560000,-8.704000e-01,0.304000,
-8.700000e-01,0.600000,-8.700000e-01,0.312000,
-8.696000e-01,0.560000,-8.696000e-01,0.288000,
-8.692000e-01,0.580000,-8.692000e-01,0.296000,
-8.688000e-01,0.580000,-8.688000e-01,0.288000,
-8.684000e-01,0.560000,-8.684000e-01,0.272000,
-8.680000e-01,0.600000,-8.680000e-01,0.272000,
-8.676000e-01,0.560000,-8.676000e-01,0.256000,
-8.672000e-01,0.600000,-8.672000e-01,0.256000,
-8.668000e-01,0.560000,-8.668000e-01,0.232000,
-8.664000e-01,0.600000,-8.664000e-01,0.240000,
-8.660000e-01,0.580000,-8.660000e-01,0.232000,
-8.656000e-01,0.560000,-8.656000e-01,0.200000,
-8.652000e-01,0.580000,-8.652000e-01,0.208000,
-8.648000e-01,0.560000,-8.648000e-01,0.184000,
-8.644000e-01,0.580000,-8.644000e-01,0.184000,
-8.640000e-01,0.580000,-8.640000e-01,0.176000,
-8.636000e-01,0.540000,-8.636000e-01,0.144000,
-8.632000e-01,0.580000,-8.632000e-01,0.152000,
-8.628000e-01,0.540000,-8.628000e-01,0.128000,
-8.624000e-01,0.560000,-8.624000e-01,0.128000,
-8.620000e-01,0.520000,-8.620000e-01,0.104000,
-8.616000e-01,0.560000,-8.616000e-01,0.104000,
-8.612000e-01,0.520000,-8.612000e-01,0.080000,
-8.608000e-01,0.540000,-8.608000e-01,0.088000,
-8.604000e-01,0.520000,-8.604000e-01,0.056000,
-8.600000e-01,0.540000,-8.600000e-01,0.064000,
-8.596000e-01,0.500000,-8.596000e-01,0.032000,
-8.592000e-01,0.520000,-8.592000e-01,0.040000,
-8.588000e-01,0.480000,-8.588000e-01,0.008000,
-8.584000e-01,0.500000,-8.584000e-01,0.016000,
-8.580000e-01,0.460000,-8.580000e-01,-0.016000,
-8.576000e-01,0.480000,-8.576000e-01,-0.008000,
-8.572000e-01,0.440000,-8.572000e-01,-0.040000,
-8.568000e-01,0.460000,-8.568000e-01,-0.032000,
-8.564000e-01,0.420000,-8.564000e-01,-0.064000,
-8.560000e-01,0.440000,-8.560000e-01,-0.056000,
-8.556000e-01,0.400000,-8.556000e-01,-0.080000,
-8.552000e-01,0.420000,-8.552000e-01,-0.080000,
-8.548000e-01,0.380000,-8.548000e-01,-0.104000,
-8.544000e-01,0.400000,-8.544000e-01,-0.096000,
-8.540000e-01,0.360000,-8.540000e-01,-0.120000,
-8.536000e-01,0.380000,-8.536000e-01,-0.120000,
-8.532000e-01,0.320000,-8.532000e-01,-0.136000,
-8.528000e-01,0.360000,-8.528000e-01,-0.136000,
-8.524000e-01,0.300000,-8.524000e-01,-0.160000,
-8.520000e-01,0.320000,-8.520000e-01,-0.152000,
-8.516000e-01,0.300000,-8.516000e-01,-0.168000,
-8.512000e-01,0.260000,-8.512000e-01,-0.184000,
-8.508000e-01,0.280000,-8.508000e-01,-0.176000,
-8.504000e-01,0.220000,-8.504000e-01,-0.200000,
-8.500000e-01,0.240000,-8.500000e-01,-0.200000,
-8.496000e-01,0.200000,-8.496000e-01,-0.216000,
-8.492000e-01,0.220000,-8.492000e-01,-0.208000,
-8.488000e-01,0.200000,-8.488000e-01,-0.216000,
-8.484000e-01,0.160000,-8.484000e-01,-0.232000,
-8.480000e-01,0.160000,-8.480000e-01,-0.232000,
-8.476000e-01,0.120000,-8.476000e-01,-0.248000,
-8.472000e-01,0.140000,-8.472000e-01,-0.240000,
-8.468000e-01,0.080000,-8.468000e-01,-0.256000,
-8.464000e-01,0.100000,-8.464000e-01,-0.248000,
-8.460000e-01,0.060000,-8.460000e-01,-0.264000,
-8.456000e-01,0.080000,-8.456000e-01,-0.256000,
-8.452000e-01,0.020000,-8.452000e-01,-0.272000,
-8.448000e-01,0.040000,-8.448000e-01,-0.264000,
-8.444000e-01,-0.020000,-8.444000e-01,-0.280000,
-8.440000e-01,0.000000,-8.440000e-01,-0.272000,
-8.436000e-01,-0.020000,-8.436000e-01,-0.272000,
-8.432000e-01,-0.060000,-8.432000e-01,-0.288000,
-8.428000e-01,-0.060000,-8.428000e-01,-0.280000,
-8.424000e-01,-0.100000,-8.424000e-01,-0.288000,
-8.420000e-01,-0.080000,-8.420000e-01,-0.288000,
-8.416000e-01,-0.120000,-8.416000e-01,-0.296000,
-8.412000e-01,-0.120000,-8.412000e-01,-0.288000,
-8.408000e-01,-0.160000,-8.408000e-01,-0.296000,
-8.404000e-01,-0.140000,-8.404000e-01,-0.288000,
-8.400000e-01,-0.180000,-8.400000e-01,-0.304000,
-8.396000e-01,-0.160000,-8.396000e-01,-0.288000,
-8.392000e-01,-0.220000,-8.392000e-01,-0.304000,
-8.388000e-01,-0.180000,-8.388000e-01,-0.296000,
